ECG-Dataset/Detailed@Arm@FFT/DS0003.CSV

Format,2.0A,
Memory Length,5000,
Trigger Level,1.00V,
Source,CH1,
Label, ,
Probe Ratio,1.000E+00,
Vertical Units,V,
Vertical Scale,5.000E-01,
Vertical Position,-1.000E+00,
Horizontal Units,S,
Horizontal Scale,5.000E-01,
Horizontal Position,0.000E+00,
Horizontal Mode,Roll Mode,
Sampling Period,1.000E-03,
Firmware,V1.18,
Time,16-Jun-15 01:53:07,
Mode,Detail,
Waveform Data,
-2.500000e+00,1.32e+00,
-2.499000e+00,1.30e+00,
-2.498000e+00,1.30e+00,
-2.497000e+00,1.32e+00,
-2.496000e+00,1.30e+00,
-2.495000e+00,1.30e+00,
-2.494000e+00,1.30e+00,
-2.493000e+00,1.32e+00,
-2.492000e+00,1.32e+00,
-2.491000e+00,1.32e+00,
-2.490000e+00,1.30e+00,
-2.489000e+00,1.30e+00,
-2.488000e+00,1.30e+00,
-2.487000e+00,1.32e+00,
-2.486000e+00,1.32e+00,
-2.485000e+00,1.32e+00,
-2.484000e+00,1.32e+00,
-2.483000e+00,1.34e+00,
-2.482000e+00,1.34e+00,
-2.481000e+00,1.34e+00,
-2.480000e+00,1.34e+00,
-2.479000e+00,1.34e+00,
-2.478000e+00,1.34e+00,
-2.477000e+00,1.34e+00,
-2.476000e+00,1.34e+00,
-2.475000e+00,1.32e+00,
-2.474000e+00,1.34e+00,
-2.473000e+00,1.34e+00,
-2.472000e+00,1.34e+00,
-2.471000e+00,1.34e+00,
-2.470000e+00,1.36e+00,
-2.469000e+00,1.34e+00,
-2.468000e+00,1.36e+00,
-2.467000e+00,1.36e+00,
-2.466000e+00,1.36e+00,
-2.465000e+00,1.36e+00,
-2.464000e+00,1.38e+00,
-2.463000e+00,1.38e+00,
-2.462000e+00,1.38e+00,
-2.461000e+00,1.38e+00,
-2.460000e+00,1.38e+00,
-2.459000e+00,1.40e+00,
-2.458000e+00,1.38e+00,
-2.457000e+00,1.38e+00,
-2.456000e+00,1.38e+00,
-2.455000e+00,1.38e+00,
-2.454000e+00,1.38e+00,
-2.453000e+00,1.38e+00,
-2.452000e+00,1.38e+00,
-2.451000e+00,1.38e+00,
-2.450000e+00,1.36e+00,
-2.449000e+00,1.38e+00,
-2.448000e+00,1.38e+00,
-2.447000e+00,1.38e+00,
-2.446000e+00,1.36e+00,
-2.445000e+00,1.36e+00,
-2.444000e+00,1.38e+00,
-2.443000e+00,1.38e+00,
-2.442000e+00,1.38e+00,
-2.441000e+00,1.36e+00,
-2.440000e+00,1.38e+00,
-2.439000e+00,1.36e+00,
-2.438000e+00,1.36e+00,
-2.437000e+00,1.36e+00,
-2.436000e+00,1.36e+00,
-2.435000e+00,1.36e+00,
-2.434000e+00,1.34e+00,
-2.433000e+00,1.36e+00,
-2.432000e+00,1.34e+00,
-2.431000e+00,1.34e+00,
-2.430000e+00,1.34e+00,
-2.429000e+00,1.34e+00,
-2.428000e+00,1.36e+00,
-2.427000e+00,1.36e+00,
-2.426000e+00,1.36e+00,
-2.425000e+00,1.36e+00,
-2.424000e+00,1.36e+00,
-2.423000e+00,1.38e+00,
-2.422000e+00,1.38e+00,
-2.421000e+00,1.38e+00,
-2.420000e+00,1.38e+00,
-2.419000e+00,1.38e+00,
-2.418000e+00,1.40e+00,
-2.417000e+00,1.38e+00,
-2.416000e+00,1.38e+00,
-2.415000e+00,1.36e+00,
-2.414000e+00,1.36e+00,
-2.413000e+00,1.38e+00,
-2.412000e+00,1.36e+00,
-2.411000e+00,1.36e+00,
-2.410000e+00,1.36e+00,
-2.409000e+00,1.36e+00,
-2.408000e+00,1.36e+00,
-2.407000e+00,1.38e+00,
-2.406000e+00,1.36e+00,
-2.405000e+00,1.38e+00,
-2.404000e+00,1.36e+00,
-2.403000e+00,1.36e+00,
-2.402000e+00,1.36e+00,
-2.401000e+00,1.38e+00,
-2.400000e+00,1.36e+00,
-2.399000e+00,1.38e+00,
-2.398000e+00,1.36e+00,
-2.397000e+00,1.34e+00,
-2.396000e+00,1.36e+00,
-2.395000e+00,1.34e+00,
-2.394000e+00,1.34e+00,
-2.393000e+00,1.34e+00,
-2.392000e+00,1.34e+00,
-2.391000e+00,1.34e+00,
-2.390000e+00,1.34e+00,
-2.389000e+00,1.34e+00,
-2.388000e+00,1.34e+00,
-2.387000e+00,1.34e+00,
-2.386000e+00,1.34e+00,
-2.385000e+00,1.36e+00,
-2.384000e+00,1.34e+00,
-2.383000e+00,1.34e+00,
-2.382000e+00,1.36e+00,
-2.381000e+00,1.34e+00,
-2.380000e+00,1.36e+00,
-2.379000e+00,1.34e+00,
-2.378000e+00,1.36e+00,
-2.377000e+00,1.36e+00,
-2.376000e+00,1.34e+00,
-2.375000e+00,1.34e+00,
-2.374000e+00,1.34e+00,
-2.373000e+00,1.36e+00,
-2.372000e+00,1.36e+00,
-2.371000e+00,1.34e+00,
-2.370000e+00,1.34e+00,
-2.369000e+00,1.36e+00,
-2.368000e+00,1.36e+00,
-2.367000e+00,1.36e+00,
-2.366000e+00,1.36e+00,
-2.365000e+00,1.38e+00,
-2.364000e+00,1.38e+00,
-2.363000e+00,1.36e+00,
-2.362000e+00,1.38e+00,
-2.361000e+00,1.38e+00,
-2.360000e+00,1.36e+00,
-2.359000e+00,1.36e+00,
-2.358000e+00,1.36e+00,
-2.357000e+00,1.36e+00,
-2.356000e+00,1.34e+00,
-2.355000e+00,1.36e+00,
-2.354000e+00,1.34e+00,
-2.353000e+00,1.36e+00,
-2.352000e+00,1.36e+00,
-2.351000e+00,1.34e+00,
-2.350000e+00,1.36e+00,
-2.349000e+00,1.36e+00,
-2.348000e+00,1.36e+00,
-2.347000e+00,1.36e+00,
-2.346000e+00,1.38e+00,
-2.345000e+00,1.38e+00,
-2.344000e+00,1.36e+00,
-2.343000e+00,1.36e+00,
-2.342000e+00,1.38e+00,
-2.341000e+00,1.36e+00,
-2.340000e+00,1.38e+00,
-2.339000e+00,1.38e+00,
-2.338000e+00,1.36e+00,
-2.337000e+00,1.38e+00,
-2.336000e+00,1.36e+00,
-2.335000e+00,1.36e+00,
-2.334000e+00,1.36e+00,
-2.333000e+00,1.36e+00,
-2.332000e+00,1.34e+00,
-2.331000e+00,1.34e+00,
-2.330000e+00,1.36e+00,
-2.329000e+00,1.36e+00,
-2.328000e+00,1.36e+00,
-2.327000e+00,1.36e+00,
-2.326000e+00,1.36e+00,
-2.325000e+00,1.38e+00,
-2.324000e+00,1.38e+00,
-2.323000e+00,1.36e+00,
-2.322000e+00,1.36e+00,
-2.321000e+00,1.36e+00,
-2.320000e+00,1.38e+00,
-2.319000e+00,1.38e+00,
-2.318000e+00,1.38e+00,
-2.317000e+00,1.38e+00,
-2.316000e+00,1.36e+00,
-2.315000e+00,1.36e+00,
-2.314000e+00,1.36e+00,
-2.313000e+00,1.36e+00,
-2.312000e+00,1.38e+00,
-2.311000e+00,1.36e+00,
-2.310000e+00,1.36e+00,
-2.309000e+00,1.38e+00,
-2.308000e+00,1.36e+00,
-2.307000e+00,1.38e+00,
-2.306000e+00,1.38e+00,
-2.305000e+00,1.38e+00,
-2.304000e+00,1.38e+00,
-2.303000e+00,1.38e+00,
-2.302000e+00,1.38e+00,
-2.301000e+00,1.36e+00,
-2.300000e+00,1.36e+00,
-2.299000e+00,1.36e+00,
-2.298000e+00,1.36e+00,
-2.297000e+00,1.36e+00,
-2.296000e+00,1.36e+00,
-2.295000e+00,1.34e+00,
-2.294000e+00,1.34e+00,
-2.293000e+00,1.34e+00,
-2.292000e+00,1.34e+00,
-2.291000e+00,1.34e+00,
-2.290000e+00,1.34e+00,
-2.289000e+00,1.34e+00,
-2.288000e+00,1.34e+00,
-2.287000e+00,1.36e+00,
-2.286000e+00,1.36e+00,
-2.285000e+00,1.36e+00,
-2.284000e+00,1.34e+00,
-2.283000e+00,1.36e+00,
-2.282000e+00,1.36e+00,
-2.281000e+00,1.38e+00,
-2.280000e+00,1.36e+00,
-2.279000e+00,1.38e+00,
-2.278000e+00,1.36e+00,
-2.277000e+00,1.38e+00,
-2.276000e+00,1.38e+00,
-2.275000e+00,1.38e+00,
-2.274000e+00,1.36e+00,
-2.273000e+00,1.38e+00,
-2.272000e+00,1.36e+00,
-2.271000e+00,1.38e+00,
-2.270000e+00,1.38e+00,
-2.269000e+00,1.38e+00,
-2.268000e+00,1.38e+00,
-2.267000e+00,1.38e+00,
-2.266000e+00,1.38e+00,
-2.265000e+00,1.36e+00,
-2.264000e+00,1.38e+00,
-2.263000e+00,1.38e+00,
-2.262000e+00,1.38e+00,
-2.261000e+00,1.38e+00,
-2.260000e+00,1.38e+00,
-2.259000e+00,1.38e+00,
-2.258000e+00,1.38e+00,
-2.257000e+00,1.38e+00,
-2.256000e+00,1.38e+00,
-2.255000e+00,1.38e+00,
-2.254000e+00,1.38e+00,
-2.253000e+00,1.38e+00,
-2.252000e+00,1.38e+00,
-2.251000e+00,1.38e+00,
-2.250000e+00,1.38e+00,
-2.249000e+00,1.36e+00,
-2.248000e+00,1.38e+00,
-2.247000e+00,1.38e+00,
-2.246000e+00,1.38e+00,
-2.245000e+00,1.38e+00,
-2.244000e+00,1.38e+00,
-2.243000e+00,1.40e+00,
-2.242000e+00,1.40e+00,
-2.241000e+00,1.40e+00,
-2.240000e+00,1.38e+00,
-2.239000e+00,1.38e+00,
-2.238000e+00,1.38e+00,
-2.237000e+00,1.36e+00,
-2.236000e+00,1.38e+00,
-2.235000e+00,1.36e+00,
-2.234000e+00,1.36e+00,
-2.233000e+00,1.36e+00,
-2.232000e+00,1.36e+00,
-2.231000e+00,1.36e+00,
-2.230000e+00,1.36e+00,
-2.229000e+00,1.36e+00,
-2.228000e+00,1.38e+00,
-2.227000e+00,1.40e+00,
-2.226000e+00,1.38e+00,
-2.225000e+00,1.40e+00,
-2.224000e+00,1.40e+00,
-2.223000e+00,1.40e+00,
-2.222000e+00,1.40e+00,
-2.221000e+00,1.40e+00,
-2.220000e+00,1.40e+00,
-2.219000e+00,1.40e+00,
-2.218000e+00,1.40e+00,
-2.217000e+00,1.40e+00,
-2.216000e+00,1.40e+00,
-2.215000e+00,1.40e+00,
-2.214000e+00,1.40e+00,
-2.213000e+00,1.40e+00,
-2.212000e+00,1.40e+00,
-2.211000e+00,1.40e+00,
-2.210000e+00,1.42e+00,
-2.209000e+00,1.42e+00,
-2.208000e+00,1.40e+00,
-2.207000e+00,1.40e+00,
-2.206000e+00,1.42e+00,
-2.205000e+00,1.42e+00,
-2.204000e+00,1.42e+00,
-2.203000e+00,1.42e+00,
-2.202000e+00,1.42e+00,
-2.201000e+00,1.40e+00,
-2.200000e+00,1.40e+00,
-2.199000e+00,1.42e+00,
-2.198000e+00,1.42e+00,
-2.197000e+00,1.40e+00,
-2.196000e+00,1.40e+00,
-2.195000e+00,1.40e+00,
-2.194000e+00,1.40e+00,
-2.193000e+00,1.40e+00,
-2.192000e+00,1.40e+00,
-2.191000e+00,1.38e+00,
-2.190000e+00,1.38e+00,
-2.189000e+00,1.40e+00,
-2.188000e+00,1.38e+00,
-2.187000e+00,1.38e+00,
-2.186000e+00,1.38e+00,
-2.185000e+00,1.36e+00,
-2.184000e+00,1.38e+00,
-2.183000e+00,1.36e+00,
-2.182000e+00,1.36e+00,
-2.181000e+00,1.36e+00,
-2.180000e+00,1.36e+00,
-2.179000e+00,1.36e+00,
-2.178000e+00,1.36e+00,
-2.177000e+00,1.34e+00,
-2.176000e+00,1.34e+00,
-2.175000e+00,1.34e+00,
-2.174000e+00,1.34e+00,
-2.173000e+00,1.34e+00,
-2.172000e+00,1.32e+00,
-2.171000e+00,1.34e+00,
-2.170000e+00,1.34e+00,
-2.169000e+00,1.32e+00,
-2.168000e+00,1.34e+00,
-2.167000e+00,1.34e+00,
-2.166000e+00,1.32e+00,
-2.165000e+00,1.34e+00,
-2.164000e+00,1.34e+00,
-2.163000e+00,1.34e+00,
-2.162000e+00,1.34e+00,
-2.161000e+00,1.34e+00,
-2.160000e+00,1.36e+00,
-2.159000e+00,1.34e+00,
-2.158000e+00,1.34e+00,
-2.157000e+00,1.34e+00,
-2.156000e+00,1.34e+00,
-2.155000e+00,1.32e+00,
-2.154000e+00,1.32e+00,
-2.153000e+00,1.32e+00,
-2.152000e+00,1.34e+00,
-2.151000e+00,1.32e+00,
-2.150000e+00,1.32e+00,
-2.149000e+00,1.32e+00,
-2.148000e+00,1.34e+00,
-2.147000e+00,1.32e+00,
-2.146000e+00,1.34e+00,
-2.145000e+00,1.34e+00,
-2.144000e+00,1.34e+00,
-2.143000e+00,1.34e+00,
-2.142000e+00,1.34e+00,
-2.141000e+00,1.34e+00,
-2.140000e+00,1.34e+00,
-2.139000e+00,1.32e+00,
-2.138000e+00,1.34e+00,
-2.137000e+00,1.34e+00,
-2.136000e+00,1.34e+00,
-2.135000e+00,1.34e+00,
-2.134000e+00,1.34e+00,
-2.133000e+00,1.32e+00,
-2.132000e+00,1.34e+00,
-2.131000e+00,1.32e+00,
-2.130000e+00,1.32e+00,
-2.129000e+00,1.34e+00,
-2.128000e+00,1.32e+00,
-2.127000e+00,1.32e+00,
-2.126000e+00,1.34e+00,
-2.125000e+00,1.34e+00,
-2.124000e+00,1.34e+00,
-2.123000e+00,1.34e+00,
-2.122000e+00,1.34e+00,
-2.121000e+00,1.34e+00,
-2.120000e+00,1.34e+00,
-2.119000e+00,1.34e+00,
-2.118000e+00,1.36e+00,
-2.117000e+00,1.34e+00,
-2.116000e+00,1.34e+00,
-2.115000e+00,1.34e+00,
-2.114000e+00,1.36e+00,
-2.113000e+00,1.36e+00,
-2.112000e+00,1.36e+00,
-2.111000e+00,1.36e+00,
-2.110000e+00,1.38e+00,
-2.109000e+00,1.38e+00,
-2.108000e+00,1.38e+00,
-2.107000e+00,1.40e+00,
-2.106000e+00,1.38e+00,
-2.105000e+00,1.40e+00,
-2.104000e+00,1.40e+00,
-2.103000e+00,1.40e+00,
-2.102000e+00,1.40e+00,
-2.101000e+00,1.42e+00,
-2.100000e+00,1.42e+00,
-2.099000e+00,1.42e+00,
-2.098000e+00,1.40e+00,
-2.097000e+00,1.42e+00,
-2.096000e+00,1.42e+00,
-2.095000e+00,1.44e+00,
-2.094000e+00,1.44e+00,
-2.093000e+00,1.46e+00,
-2.092000e+00,1.48e+00,
-2.091000e+00,1.48e+00,
-2.090000e+00,1.50e+00,
-2.089000e+00,1.50e+00,
-2.088000e+00,1.52e+00,
-2.087000e+00,1.52e+00,
-2.086000e+00,1.52e+00,
-2.085000e+00,1.52e+00,
-2.084000e+00,1.52e+00,
-2.083000e+00,1.54e+00,
-2.082000e+00,1.54e+00,
-2.081000e+00,1.54e+00,
-2.080000e+00,1.54e+00,
-2.079000e+00,1.54e+00,
-2.078000e+00,1.54e+00,
-2.077000e+00,1.52e+00,
-2.076000e+00,1.50e+00,
-2.075000e+00,1.50e+00,
-2.074000e+00,1.50e+00,
-2.073000e+00,1.48e+00,
-2.072000e+00,1.46e+00,
-2.071000e+00,1.44e+00,
-2.070000e+00,1.42e+00,
-2.069000e+00,1.40e+00,
-2.068000e+00,1.40e+00,
-2.067000e+00,1.38e+00,
-2.066000e+00,1.36e+00,
-2.065000e+00,1.34e+00,
-2.064000e+00,1.32e+00,
-2.063000e+00,1.32e+00,
-2.062000e+00,1.28e+00,
-2.061000e+00,1.26e+00,
-2.060000e+00,1.26e+00,
-2.059000e+00,1.22e+00,
-2.058000e+00,1.22e+00,
-2.057000e+00,1.20e+00,
-2.056000e+00,1.20e+00,
-2.055000e+00,1.18e+00,
-2.054000e+00,1.18e+00,
-2.053000e+00,1.18e+00,
-2.052000e+00,1.16e+00,
-2.051000e+00,1.16e+00,
-2.050000e+00,1.16e+00,
-2.049000e+00,1.16e+00,
-2.048000e+00,1.16e+00,
-2.047000e+00,1.16e+00,
-2.046000e+00,1.18e+00,
-2.045000e+00,1.16e+00,
-2.044000e+00,1.20e+00,
-2.043000e+00,1.20e+00,
-2.042000e+00,1.20e+00,
-2.041000e+00,1.20e+00,
-2.040000e+00,1.22e+00,
-2.039000e+00,1.20e+00,
-2.038000e+00,1.22e+00,
-2.037000e+00,1.22e+00,
-2.036000e+00,1.22e+00,
-2.035000e+00,1.24e+00,
-2.034000e+00,1.24e+00,
-2.033000e+00,1.24e+00,
-2.032000e+00,1.26e+00,
-2.031000e+00,1.26e+00,
-2.030000e+00,1.26e+00,
-2.029000e+00,1.26e+00,
-2.028000e+00,1.26e+00,
-2.027000e+00,1.28e+00,
-2.026000e+00,1.28e+00,
-2.025000e+00,1.30e+00,
-2.024000e+00,1.30e+00,
-2.023000e+00,1.30e+00,
-2.022000e+00,1.32e+00,
-2.021000e+00,1.32e+00,
-2.020000e+00,1.32e+00,
-2.019000e+00,1.32e+00,
-2.018000e+00,1.32e+00,
-2.017000e+00,1.34e+00,
-2.016000e+00,1.34e+00,
-2.015000e+00,1.34e+00,
-2.014000e+00,1.34e+00,
-2.013000e+00,1.34e+00,
-2.012000e+00,1.36e+00,
-2.011000e+00,1.34e+00,
-2.010000e+00,1.36e+00,
-2.009000e+00,1.38e+00,
-2.008000e+00,1.36e+00,
-2.007000e+00,1.38e+00,
-2.006000e+00,1.38e+00,
-2.005000e+00,1.38e+00,
-2.004000e+00,1.36e+00,
-2.003000e+00,1.38e+00,
-2.002000e+00,1.36e+00,
-2.001000e+00,1.38e+00,
-2.000000e+00,1.36e+00,
-1.999000e+00,1.36e+00,
-1.998000e+00,1.36e+00,
-1.997000e+00,1.34e+00,
-1.996000e+00,1.34e+00,
-1.995000e+00,1.36e+00,
-1.994000e+00,1.34e+00,
-1.993000e+00,1.34e+00,
-1.992000e+00,1.36e+00,
-1.991000e+00,1.34e+00,
-1.990000e+00,1.34e+00,
-1.989000e+00,1.32e+00,
-1.988000e+00,1.34e+00,
-1.987000e+00,1.34e+00,
-1.986000e+00,1.36e+00,
-1.985000e+00,1.36e+00,
-1.984000e+00,1.36e+00,
-1.983000e+00,1.34e+00,
-1.982000e+00,1.36e+00,
-1.981000e+00,1.34e+00,
-1.980000e+00,1.38e+00,
-1.979000e+00,1.36e+00,
-1.978000e+00,1.36e+00,
-1.977000e+00,1.36e+00,
-1.976000e+00,1.36e+00,
-1.975000e+00,1.36e+00,
-1.974000e+00,1.36e+00,
-1.973000e+00,1.36e+00,
-1.972000e+00,1.36e+00,
-1.971000e+00,1.36e+00,
-1.970000e+00,1.36e+00,
-1.969000e+00,1.36e+00,
-1.968000e+00,1.38e+00,
-1.967000e+00,1.36e+00,
-1.966000e+00,1.36e+00,
-1.965000e+00,1.36e+00,
-1.964000e+00,1.38e+00,
-1.963000e+00,1.36e+00,
-1.962000e+00,1.36e+00,
-1.961000e+00,1.36e+00,
-1.960000e+00,1.38e+00,
-1.959000e+00,1.36e+00,
-1.958000e+00,1.36e+00,
-1.957000e+00,1.34e+00,
-1.956000e+00,1.34e+00,
-1.955000e+00,1.34e+00,
-1.954000e+00,1.34e+00,
-1.953000e+00,1.36e+00,
-1.952000e+00,1.36e+00,
-1.951000e+00,1.36e+00,
-1.950000e+00,1.36e+00,
-1.949000e+00,1.38e+00,
-1.948000e+00,1.36e+00,
-1.947000e+00,1.36e+00,
-1.946000e+00,1.36e+00,
-1.945000e+00,1.36e+00,
-1.944000e+00,1.38e+00,
-1.943000e+00,1.38e+00,
-1.942000e+00,1.36e+00,
-1.941000e+00,1.38e+00,
-1.940000e+00,1.36e+00,
-1.939000e+00,1.36e+00,
-1.938000e+00,1.36e+00,
-1.937000e+00,1.36e+00,
-1.936000e+00,1.36e+00,
-1.935000e+00,1.36e+00,
-1.934000e+00,1.36e+00,
-1.933000e+00,1.34e+00,
-1.932000e+00,1.34e+00,
-1.931000e+00,1.34e+00,
-1.930000e+00,1.36e+00,
-1.929000e+00,1.34e+00,
-1.928000e+00,1.34e+00,
-1.927000e+00,1.34e+00,
-1.926000e+00,1.34e+00,
-1.925000e+00,1.36e+00,
-1.924000e+00,1.36e+00,
-1.923000e+00,1.36e+00,
-1.922000e+00,1.34e+00,
-1.921000e+00,1.36e+00,
-1.920000e+00,1.36e+00,
-1.919000e+00,1.36e+00,
-1.918000e+00,1.34e+00,
-1.917000e+00,1.34e+00,
-1.916000e+00,1.34e+00,
-1.915000e+00,1.34e+00,
-1.914000e+00,1.34e+00,
-1.913000e+00,1.34e+00,
-1.912000e+00,1.34e+00,
-1.911000e+00,1.34e+00,
-1.910000e+00,1.34e+00,
-1.909000e+00,1.34e+00,
-1.908000e+00,1.34e+00,
-1.907000e+00,1.36e+00,
-1.906000e+00,1.36e+00,
-1.905000e+00,1.36e+00,
-1.904000e+00,1.36e+00,
-1.903000e+00,1.38e+00,
-1.902000e+00,1.40e+00,
-1.901000e+00,1.38e+00,
-1.900000e+00,1.38e+00,
-1.899000e+00,1.40e+00,
-1.898000e+00,1.38e+00,
-1.897000e+00,1.38e+00,
-1.896000e+00,1.38e+00,
-1.895000e+00,1.38e+00,
-1.894000e+00,1.38e+00,
-1.893000e+00,1.38e+00,
-1.892000e+00,1.38e+00,
-1.891000e+00,1.38e+00,
-1.890000e+00,1.38e+00,
-1.889000e+00,1.40e+00,
-1.888000e+00,1.40e+00,
-1.887000e+00,1.40e+00,
-1.886000e+00,1.40e+00,
-1.885000e+00,1.40e+00,
-1.884000e+00,1.40e+00,
-1.883000e+00,1.40e+00,
-1.882000e+00,1.40e+00,
-1.881000e+00,1.40e+00,
-1.880000e+00,1.40e+00,
-1.879000e+00,1.40e+00,
-1.878000e+00,1.40e+00,
-1.877000e+00,1.40e+00,
-1.876000e+00,1.42e+00,
-1.875000e+00,1.40e+00,
-1.874000e+00,1.42e+00,
-1.873000e+00,1.40e+00,
-1.872000e+00,1.40e+00,
-1.871000e+00,1.40e+00,
-1.870000e+00,1.40e+00,
-1.869000e+00,1.40e+00,
-1.868000e+00,1.40e+00,
-1.867000e+00,1.42e+00,
-1.866000e+00,1.42e+00,
-1.865000e+00,1.42e+00,
-1.864000e+00,1.42e+00,
-1.863000e+00,1.42e+00,
-1.862000e+00,1.42e+00,
-1.861000e+00,1.42e+00,
-1.860000e+00,1.42e+00,
-1.859000e+00,1.42e+00,
-1.858000e+00,1.42e+00,
-1.857000e+00,1.42e+00,
-1.856000e+00,1.40e+00,
-1.855000e+00,1.40e+00,
-1.854000e+00,1.38e+00,
-1.853000e+00,1.40e+00,
-1.852000e+00,1.40e+00,
-1.851000e+00,1.40e+00,
-1.850000e+00,1.42e+00,
-1.849000e+00,1.42e+00,
-1.848000e+00,1.42e+00,
-1.847000e+00,1.38e+00,
-1.846000e+00,1.40e+00,
-1.845000e+00,1.42e+00,
-1.844000e+00,1.40e+00,
-1.843000e+00,1.42e+00,
-1.842000e+00,1.42e+00,
-1.841000e+00,1.40e+00,
-1.840000e+00,1.40e+00,
-1.839000e+00,1.40e+00,
-1.838000e+00,1.38e+00,
-1.837000e+00,1.38e+00,
-1.836000e+00,1.40e+00,
-1.835000e+00,1.40e+00,
-1.834000e+00,1.38e+00,
-1.833000e+00,1.36e+00,
-1.832000e+00,1.36e+00,
-1.831000e+00,1.36e+00,
-1.830000e+00,1.36e+00,
-1.829000e+00,1.36e+00,
-1.828000e+00,1.36e+00,
-1.827000e+00,1.36e+00,
-1.826000e+00,1.36e+00,
-1.825000e+00,1.36e+00,
-1.824000e+00,1.36e+00,
-1.823000e+00,1.36e+00,
-1.822000e+00,1.34e+00,
-1.821000e+00,1.34e+00,
-1.820000e+00,1.34e+00,
-1.819000e+00,1.32e+00,
-1.818000e+00,1.32e+00,
-1.817000e+00,1.32e+00,
-1.816000e+00,1.32e+00,
-1.815000e+00,1.32e+00,
-1.814000e+00,1.30e+00,
-1.813000e+00,1.30e+00,
-1.812000e+00,1.32e+00,
-1.811000e+00,1.32e+00,
-1.810000e+00,1.32e+00,
-1.809000e+00,1.30e+00,
-1.808000e+00,1.32e+00,
-1.807000e+00,1.30e+00,
-1.806000e+00,1.30e+00,
-1.805000e+00,1.30e+00,
-1.804000e+00,1.30e+00,
-1.803000e+00,1.30e+00,
-1.802000e+00,1.30e+00,
-1.801000e+00,1.28e+00,
-1.800000e+00,1.28e+00,
-1.799000e+00,1.28e+00,
-1.798000e+00,1.26e+00,
-1.797000e+00,1.26e+00,
-1.796000e+00,1.26e+00,
-1.795000e+00,1.26e+00,
-1.794000e+00,1.26e+00,
-1.793000e+00,1.24e+00,
-1.792000e+00,1.24e+00,
-1.791000e+00,1.22e+00,
-1.790000e+00,1.24e+00,
-1.789000e+00,1.24e+00,
-1.788000e+00,1.22e+00,
-1.787000e+00,1.24e+00,
-1.786000e+00,1.24e+00,
-1.785000e+00,1.24e+00,
-1.784000e+00,1.24e+00,
-1.783000e+00,1.24e+00,
-1.782000e+00,1.24e+00,
-1.781000e+00,1.22e+00,
-1.780000e+00,1.22e+00,
-1.779000e+00,1.22e+00,
-1.778000e+00,1.22e+00,
-1.777000e+00,1.22e+00,
-1.776000e+00,1.22e+00,
-1.775000e+00,1.22e+00,
-1.774000e+00,1.22e+00,
-1.773000e+00,1.22e+00,
-1.772000e+00,1.22e+00,
-1.771000e+00,1.22e+00,
-1.770000e+00,1.22e+00,
-1.769000e+00,1.22e+00,
-1.768000e+00,1.24e+00,
-1.767000e+00,1.22e+00,
-1.766000e+00,1.22e+00,
-1.765000e+00,1.22e+00,
-1.764000e+00,1.22e+00,
-1.763000e+00,1.22e+00,
-1.762000e+00,1.22e+00,
-1.761000e+00,1.22e+00,
-1.760000e+00,1.22e+00,
-1.759000e+00,1.22e+00,
-1.758000e+00,1.22e+00,
-1.757000e+00,1.22e+00,
-1.756000e+00,1.22e+00,
-1.755000e+00,1.22e+00,
-1.754000e+00,1.22e+00,
-1.753000e+00,1.22e+00,
-1.752000e+00,1.22e+00,
-1.751000e+00,1.22e+00,
-1.750000e+00,1.22e+00,
-1.749000e+00,1.22e+00,
-1.748000e+00,1.22e+00,
-1.747000e+00,1.22e+00,
-1.746000e+00,1.24e+00,
-1.745000e+00,1.24e+00,
-1.744000e+00,1.24e+00,
-1.743000e+00,1.24e+00,
-1.742000e+00,1.26e+00,
-1.741000e+00,1.24e+00,
-1.740000e+00,1.26e+00,
-1.739000e+00,1.24e+00,
-1.738000e+00,1.24e+00,
-1.737000e+00,1.24e+00,
-1.736000e+00,1.26e+00,
-1.735000e+00,1.24e+00,
-1.734000e+00,1.26e+00,
-1.733000e+00,1.26e+00,
-1.732000e+00,1.26e+00,
-1.731000e+00,1.26e+00,
-1.730000e+00,1.28e+00,
-1.729000e+00,1.28e+00,
-1.728000e+00,1.28e+00,
-1.727000e+00,1.26e+00,
-1.726000e+00,1.28e+00,
-1.725000e+00,1.28e+00,
-1.724000e+00,1.28e+00,
-1.723000e+00,1.30e+00,
-1.722000e+00,1.28e+00,
-1.721000e+00,1.30e+00,
-1.720000e+00,1.30e+00,
-1.719000e+00,1.30e+00,
-1.718000e+00,1.30e+00,
-1.717000e+00,1.30e+00,
-1.716000e+00,1.30e+00,
-1.715000e+00,1.30e+00,
-1.714000e+00,1.30e+00,
-1.713000e+00,1.32e+00,
-1.712000e+00,1.30e+00,
-1.711000e+00,1.30e+00,
-1.710000e+00,1.32e+00,
-1.709000e+00,1.32e+00,
-1.708000e+00,1.32e+00,
-1.707000e+00,1.34e+00,
-1.706000e+00,1.34e+00,
-1.705000e+00,1.34e+00,
-1.704000e+00,1.34e+00,
-1.703000e+00,1.34e+00,
-1.702000e+00,1.32e+00,
-1.701000e+00,1.34e+00,
-1.700000e+00,1.32e+00,
-1.699000e+00,1.32e+00,
-1.698000e+00,1.34e+00,
-1.697000e+00,1.34e+00,
-1.696000e+00,1.32e+00,
-1.695000e+00,1.32e+00,
-1.694000e+00,1.32e+00,
-1.693000e+00,1.32e+00,
-1.692000e+00,1.32e+00,
-1.691000e+00,1.32e+00,
-1.690000e+00,1.32e+00,
-1.689000e+00,1.32e+00,
-1.688000e+00,1.32e+00,
-1.687000e+00,1.32e+00,
-1.686000e+00,1.32e+00,
-1.685000e+00,1.32e+00,
-1.684000e+00,1.34e+00,
