ECG-Dataset/Archisman_04.06.2015_Shielding_nonShielding/with shielding/ALL0001.CSV

Format,2.0A,
Memory Length,5000,Memory Length,1000,
Trigger Level,2.96mV,Trigger Level,0.000E+00,
Source,CH1,Source,FFT,
Label, ,Label, ,
Probe Ratio,1.000E+00,Probe Ratio,1.000E+00,
Vertical Units,V,Vertical Units,dB,
Vertical Scale,1.000E-01,Vertical Scale,2.000E+01,
Vertical Position,8.800E-02,Vertical Position,0.000000E+00Div,
Horizontal Units,S,Horizontal Units,Hz,
Horizontal Scale,1.000E+00,Horizontal Scale,25Hz,
Horizontal Position,0.000E+00,Horizontal Position,0.000E+00,
Horizontal Mode,Roll Mode,Horizontal Mode,Roll Mode,
Sampling Period,2.000E-03,Sampling Period,2.500E-01,
Firmware,V1.18,Firmware,V1.18,
Time,04-Jun-15 22:03:23,Time,04-Jun-15 22:03:23,
Mode,Detail,Mode,Detail,
Waveform Data,,Waveform Data,,
-5.000000e+00,0.104000,0.000000e+00,-61.599998,
-4.998000e+00,0.080000,2.500000e-01,-48.000000,
-4.996000e+00,0.084000,5.000000e-01,-52.799999,
-4.994000e+00,0.052000,7.500000e-01,-50.400002,
-4.992000e+00,0.068000,1.000000e+00,-49.599998,
-4.990000e+00,0.032000,1.250000e+00,-35.200001,
-4.988000e+00,0.040000,1.500000e+00,-46.400002,
-4.986000e+00,0.012000,1.750000e+00,-47.200001,
-4.984000e+00,0.020000,2.000000e+00,-50.400002,
-4.982000e+00,-0.004000,2.250000e+00,-52.799999,
-4.980000e+00,0.004000,2.500000e+00,-43.200001,
-4.978000e+00,-0.016000,2.750000e+00,-46.400002,
-4.976000e+00,-0.004000,3.000000e+00,-46.400002,
-4.974000e+00,-0.020000,3.250000e+00,-59.200001,
-4.972000e+00,-0.012000,3.500000e+00,-52.000000,
-4.970000e+00,-0.024000,3.750000e+00,-45.599998,
-4.968000e+00,-0.012000,4.000000e+00,-39.200001,
-4.966000e+00,-0.028000,4.250000e+00,-46.400002,
-4.964000e+00,-0.016000,4.500000e+00,-54.400002,
-4.962000e+00,-0.028000,4.750000e+00,-66.400002,
-4.960000e+00,-0.016000,5.000000e+00,-47.200001,
-4.958000e+00,-0.028000,5.250000e+00,-38.400002,
-4.956000e+00,-0.016000,5.500000e+00,-48.799999,
-4.954000e+00,-0.032000,5.750000e+00,-62.400002,
-4.952000e+00,-0.012000,6.000000e+00,-49.599998,
-4.950000e+00,-0.028000,6.250000e+00,-52.000000,
-4.948000e+00,-0.016000,6.500000e+00,-46.400002,
-4.946000e+00,-0.028000,6.750000e+00,-51.200001,
-4.944000e+00,-0.012000,7.000000e+00,-56.000000,
-4.942000e+00,-0.028000,7.250000e+00,-55.200001,
-4.940000e+00,-0.016000,7.500000e+00,-53.599998,
-4.938000e+00,-0.028000,7.750000e+00,-47.200001,
-4.936000e+00,-0.016000,8.000000e+00,-48.799999,
-4.934000e+00,-0.028000,8.250000e+00,-49.599998,
-4.932000e+00,-0.036000,8.500000e+00,-51.200001,
-4.930000e+00,-0.016000,8.750000e+00,-55.200001,
-4.928000e+00,-0.008000,9.000000e+00,-48.000000,
-4.926000e+00,-0.024000,9.250000e+00,-46.400002,
-4.924000e+00,-0.004000,9.500000e+00,-48.799999,
-4.922000e+00,-0.020000,9.750000e+00,-51.200001,
-4.920000e+00,-0.008000,1.000000e+01,-68.800003,
-4.918000e+00,-0.020000,1.025000e+01,-48.799999,
-4.916000e+00,-0.008000,1.050000e+01,-49.599998,
-4.914000e+00,-0.020000,1.075000e+01,-53.599998,
-4.912000e+00,-0.008000,1.100000e+01,-73.599998,
-4.910000e+00,-0.020000,1.125000e+01,-56.799999,
-4.908000e+00,-0.008000,1.150000e+01,-53.599998,
-4.906000e+00,-0.020000,1.175000e+01,-55.200001,
-4.904000e+00,-0.004000,1.200000e+01,-54.400002,
-4.902000e+00,-0.024000,1.225000e+01,-56.799999,
-4.900000e+00,-0.008000,1.250000e+01,-55.200001,
-4.898000e+00,-0.020000,1.275000e+01,-52.799999,
-4.896000e+00,-0.008000,1.300000e+01,-51.200001,
-4.894000e+00,-0.020000,1.325000e+01,-56.000000,
-4.892000e+00,-0.004000,1.350000e+01,-51.200001,
-4.890000e+00,-0.016000,1.375000e+01,-51.200001,
-4.888000e+00,-0.004000,1.400000e+01,-59.200001,
-4.886000e+00,-0.016000,1.425000e+01,-52.000000,
-4.884000e+00,0.004000,1.450000e+01,-62.400002,
-4.882000e+00,-0.016000,1.475000e+01,-57.599998,
-4.880000e+00,0.004000,1.500000e+01,-57.599998,
-4.878000e+00,-0.008000,1.525000e+01,-68.000000,
-4.876000e+00,0.004000,1.550000e+01,-52.000000,
-4.874000e+00,-0.008000,1.575000e+01,-59.200001,
-4.872000e+00,0.008000,1.600000e+01,-55.200001,
-4.870000e+00,-0.004000,1.625000e+01,-65.599998,
-4.868000e+00,0.008000,1.650000e+01,-54.400002,
-4.866000e+00,-0.004000,1.675000e+01,-52.000000,
-4.864000e+00,0.012000,1.700000e+01,-62.400002,
-4.862000e+00,-0.004000,1.725000e+01,-56.000000,
-4.860000e+00,0.000000,1.750000e+01,-67.199997,
-4.858000e+00,0.012000,1.775000e+01,-55.200001,
-4.856000e+00,0.012000,1.800000e+01,-56.000000,
-4.854000e+00,0.000000,1.825000e+01,-59.200001,
-4.852000e+00,0.012000,1.850000e+01,-64.000000,
-4.850000e+00,0.004000,1.875000e+01,-61.599998,
-4.848000e+00,0.016000,1.900000e+01,-56.000000,
-4.846000e+00,0.008000,1.925000e+01,-63.200001,
-4.844000e+00,0.020000,1.950000e+01,-57.599998,
-4.842000e+00,0.004000,1.975000e+01,-62.400002,
-4.840000e+00,0.024000,2.000000e+01,-60.000000,
-4.838000e+00,0.012000,2.025000e+01,-56.799999,
-4.836000e+00,0.028000,2.050000e+01,-63.200001,
-4.834000e+00,0.016000,2.075000e+01,-56.000000,
-4.832000e+00,0.032000,2.100000e+01,-60.799999,
-4.830000e+00,0.016000,2.125000e+01,-57.599998,
-4.828000e+00,0.036000,2.150000e+01,-64.800003,
-4.826000e+00,0.024000,2.175000e+01,-63.200001,
-4.824000e+00,0.024000,2.200000e+01,-56.799999,
-4.822000e+00,0.040000,2.225000e+01,-60.799999,
-4.820000e+00,0.028000,2.250000e+01,-60.799999,
-4.818000e+00,0.048000,2.275000e+01,-70.400002,
-4.816000e+00,0.036000,2.300000e+01,-61.599998,
-4.814000e+00,0.052000,2.325000e+01,-60.799999,
-4.812000e+00,0.040000,2.350000e+01,-60.000000,
-4.810000e+00,0.056000,2.375000e+01,-64.800003,
-4.808000e+00,0.060000,2.400000e+01,-64.000000,
-4.806000e+00,0.048000,2.425000e+01,-63.200001,
-4.804000e+00,0.064000,2.450000e+01,-74.400002,
-4.802000e+00,0.048000,2.475000e+01,-60.799999,
-4.800000e+00,0.064000,2.500000e+01,-61.599998,
-4.798000e+00,0.048000,2.525000e+01,-64.000000,
-4.796000e+00,0.064000,2.550000e+01,-72.000000,
-4.794000e+00,0.048000,2.575000e+01,-72.800003,
-4.792000e+00,0.064000,2.600000e+01,-63.200001,
-4.790000e+00,0.048000,2.625000e+01,-60.000000,
-4.788000e+00,0.060000,2.650000e+01,-67.199997,
-4.786000e+00,0.048000,2.675000e+01,-76.000000,
-4.784000e+00,0.060000,2.700000e+01,-66.400002,
-4.782000e+00,0.040000,2.725000e+01,-68.000000,
-4.780000e+00,0.052000,2.750000e+01,-61.599998,
-4.778000e+00,0.036000,2.775000e+01,-68.800003,
-4.776000e+00,0.048000,2.800000e+01,-87.199997,
-4.774000e+00,0.032000,2.825000e+01,-67.199997,
-4.772000e+00,0.040000,2.850000e+01,-66.400002,
-4.770000e+00,0.024000,2.875000e+01,-72.000000,
-4.768000e+00,0.032000,2.900000e+01,-63.200001,
-4.766000e+00,0.016000,2.925000e+01,-71.199997,
-4.764000e+00,0.024000,2.950000e+01,-75.199997,
-4.762000e+00,0.008000,2.975000e+01,-78.400002,
-4.760000e+00,0.016000,3.000000e+01,-88.800003,
-4.758000e+00,0.000000,3.025000e+01,-64.800003,
-4.756000e+00,0.008000,3.050000e+01,-68.800003,
-4.754000e+00,-0.008000,3.075000e+01,-72.000000,
-4.752000e+00,0.004000,3.100000e+01,-80.000000,
-4.750000e+00,-0.012000,3.125000e+01,-73.599998,
-4.748000e+00,-0.004000,3.150000e+01,-70.400002,
-4.746000e+00,-0.020000,3.175000e+01,-80.000000,
-4.744000e+00,-0.008000,3.200000e+01,-69.599998,
-4.742000e+00,-0.024000,3.225000e+01,-74.400002,
-4.740000e+00,-0.016000,3.250000e+01,-85.599998,
-4.738000e+00,-0.028000,3.275000e+01,-65.599998,
-4.736000e+00,-0.020000,3.300000e+01,-92.000000,
-4.734000e+00,-0.040000,3.325000e+01,-72.000000,
-4.732000e+00,-0.028000,3.350000e+01,-76.000000,
-4.730000e+00,-0.044000,3.375000e+01,-76.800003,
-4.728000e+00,-0.032000,3.400000e+01,-71.199997,
-4.726000e+00,-0.048000,3.425000e+01,-76.000000,
-4.724000e+00,-0.036000,3.450000e+01,-71.199997,
-4.722000e+00,-0.048000,3.475000e+01,-81.599998,
-4.720000e+00,-0.036000,3.500000e+01,-83.199997,
-4.718000e+00,-0.048000,3.525000e+01,-75.199997,
-4.716000e+00,-0.040000,3.550000e+01,-76.000000,
-4.714000e+00,-0.056000,3.575000e+01,-78.400002,
-4.712000e+00,-0.044000,3.600000e+01,-81.599998,
-4.710000e+00,-0.060000,3.625000e+01,-72.000000,
-4.708000e+00,-0.048000,3.650000e+01,-72.000000,
-4.706000e+00,-0.064000,3.675000e+01,-69.599998,
-4.704000e+00,-0.048000,3.700000e+01,-84.800003,
-4.702000e+00,-0.068000,3.725000e+01,-90.400002,
-4.700000e+00,-0.052000,3.750000e+01,-80.000000,
-4.698000e+00,-0.068000,3.775000e+01,-72.800003,
-4.696000e+00,-0.052000,3.800000e+01,-79.199997,
-4.694000e+00,-0.064000,3.825000e+01,-67.199997,
-4.692000e+00,-0.048000,3.850000e+01,-72.000000,
-4.690000e+00,-0.064000,3.875000e+01,-78.400002,
-4.688000e+00,-0.044000,3.900000e+01,-79.199997,
-4.686000e+00,-0.060000,3.925000e+01,-68.000000,
-4.684000e+00,-0.048000,3.950000e+01,-72.800003,
-4.682000e+00,-0.060000,3.975000e+01,-75.199997,
-4.680000e+00,-0.044000,4.000000e+01,-88.000000,
-4.678000e+00,-0.064000,4.025000e+01,-76.800003,
-4.676000e+00,-0.052000,4.050000e+01,-74.400002,
-4.674000e+00,-0.068000,4.075000e+01,-80.000000,
-4.672000e+00,-0.052000,4.100000e+01,-73.599998,
-4.670000e+00,-0.068000,4.125000e+01,-76.800003,
-4.668000e+00,-0.056000,4.150000e+01,-79.199997,
-4.666000e+00,-0.072000,4.175000e+01,-79.199997,
-4.664000e+00,-0.068000,4.200000e+01,-76.000000,
-4.662000e+00,-0.052000,4.225000e+01,-96.800003,
-4.660000e+00,-0.048000,4.250000e+01,-80.000000,
-4.658000e+00,-0.064000,4.275000e+01,-76.000000,
-4.656000e+00,-0.052000,4.300000e+01,-84.800003,
-4.654000e+00,-0.064000,4.325000e+01,-71.199997,
-4.652000e+00,-0.052000,4.350000e+01,-80.000000,
-4.650000e+00,-0.064000,4.375000e+01,-82.400002,
-4.648000e+00,-0.052000,4.400000e+01,-77.599998,
-4.646000e+00,-0.064000,4.425000e+01,-78.400002,
-4.644000e+00,-0.052000,4.450000e+01,-71.199997,
-4.642000e+00,-0.068000,4.475000e+01,-76.800003,
-4.640000e+00,-0.056000,4.500000e+01,-92.000000,
-4.638000e+00,-0.068000,4.525000e+01,-81.599998,
-4.636000e+00,-0.052000,4.550000e+01,-76.800003,
-4.634000e+00,-0.064000,4.575000e+01,-82.400002,
-4.632000e+00,-0.068000,4.600000e+01,-74.400002,
-4.630000e+00,-0.048000,4.625000e+01,-74.400002,
-4.628000e+00,-0.048000,4.650000e+01,-75.199997,
-4.626000e+00,-0.060000,4.675000e+01,-83.199997,
-4.624000e+00,-0.044000,4.700000e+01,-76.000000,
-4.622000e+00,-0.060000,4.725000e+01,-78.400002,
-4.620000e+00,-0.048000,4.750000e+01,-76.800003,
-4.618000e+00,-0.060000,4.775000e+01,-75.199997,
-4.616000e+00,-0.044000,4.800000e+01,-75.199997,
-4.614000e+00,-0.068000,4.825000e+01,-87.199997,
-4.612000e+00,-0.052000,4.850000e+01,-72.000000,
-4.610000e+00,-0.064000,4.875000e+01,-71.199997,
-4.608000e+00,-0.048000,4.900000e+01,-74.400002,
-4.606000e+00,-0.068000,4.925000e+01,-75.199997,
-4.604000e+00,-0.044000,4.950000e+01,-83.199997,
-4.602000e+00,-0.064000,4.975000e+01,-77.599998,
-4.600000e+00,-0.052000,5.000000e+01,-72.800003,
-4.598000e+00,-0.064000,5.025000e+01,-78.400002,
-4.596000e+00,-0.064000,5.050000e+01,-73.599998,
-4.594000e+00,-0.048000,5.075000e+01,-72.800003,
-4.592000e+00,-0.048000,5.100000e+01,-72.000000,
-4.590000e+00,-0.064000,5.125000e+01,-79.199997,
-4.588000e+00,-0.048000,5.150000e+01,-83.199997,
-4.586000e+00,-0.060000,5.175000e+01,-76.000000,
-4.584000e+00,-0.044000,5.200000e+01,-79.199997,
-4.582000e+00,-0.060000,5.225000e+01,-75.199997,
-4.580000e+00,-0.048000,5.250000e+01,-74.400002,
-4.578000e+00,-0.056000,5.275000e+01,-92.000000,
-4.576000e+00,-0.044000,5.300000e+01,-77.599998,
-4.574000e+00,-0.060000,5.325000e+01,-81.599998,
-4.572000e+00,-0.048000,5.350000e+01,-86.400002,
-4.570000e+00,-0.060000,5.375000e+01,-83.199997,
-4.568000e+00,-0.048000,5.400000e+01,-81.599998,
-4.566000e+00,-0.064000,5.425000e+01,-77.599998,
-4.564000e+00,-0.044000,5.450000e+01,-80.800003,
-4.562000e+00,-0.064000,5.475000e+01,-76.000000,
-4.560000e+00,-0.060000,5.500000e+01,-78.400002,
-4.558000e+00,-0.044000,5.525000e+01,-78.400002,
-4.556000e+00,-0.044000,5.550000e+01,-80.800003,
-4.554000e+00,-0.060000,5.575000e+01,-92.000000,
-4.552000e+00,-0.044000,5.600000e+01,-76.000000,
-4.550000e+00,-0.060000,5.625000e+01,-84.000000,
-4.548000e+00,-0.040000,5.650000e+01,-72.800003,
-4.546000e+00,-0.056000,5.675000e+01,-76.800003,
-4.544000e+00,-0.040000,5.700000e+01,-76.800003,
-4.542000e+00,-0.052000,5.725000e+01,-78.400002,
-4.540000e+00,-0.036000,5.750000e+01,-82.400002,
-4.538000e+00,-0.048000,5.775000e+01,-84.000000,
-4.536000e+00,-0.048000,5.800000e+01,-76.000000,
-4.534000e+00,-0.032000,5.825000e+01,-73.599998,
-4.532000e+00,-0.048000,5.850000e+01,-76.800003,
-4.530000e+00,-0.028000,5.875000e+01,-92.800003,
-4.528000e+00,-0.028000,5.900000e+01,-72.800003,
-4.526000e+00,-0.040000,5.925000e+01,-76.800003,
-4.524000e+00,-0.024000,5.950000e+01,-76.800003,
-4.522000e+00,-0.044000,5.975000e+01,-73.599998,
-4.520000e+00,-0.028000,6.000000e+01,-79.199997,
-4.518000e+00,-0.040000,6.025000e+01,-80.000000,
-4.516000e+00,-0.028000,6.050000e+01,-76.000000,
-4.514000e+00,-0.040000,6.075000e+01,-82.400002,
-4.512000e+00,-0.028000,6.100000e+01,-76.000000,
-4.510000e+00,-0.040000,6.125000e+01,-75.199997,
-4.508000e+00,-0.024000,6.150000e+01,-76.800003,
-4.506000e+00,-0.040000,6.175000e+01,-73.599998,
-4.504000e+00,-0.028000,6.200000e+01,-84.800003,
-4.502000e+00,-0.044000,6.225000e+01,-70.400002,
-4.500000e+00,-0.028000,6.250000e+01,-72.800003,
-4.498000e+00,-0.040000,6.275000e+01,-74.400002,
-4.496000e+00,-0.028000,6.300000e+01,-84.000000,
-4.494000e+00,-0.040000,6.325000e+01,-92.800003,
-4.492000e+00,-0.028000,6.350000e+01,-83.199997,
-4.490000e+00,-0.040000,6.375000e+01,-81.599998,
-4.488000e+00,-0.024000,6.400000e+01,-85.599998,
-4.486000e+00,-0.036000,6.425000e+01,-79.199997,
-4.484000e+00,-0.020000,6.450000e+01,-80.000000,
-4.482000e+00,-0.040000,6.475000e+01,-76.800003,
-4.480000e+00,-0.024000,6.500000e+01,-79.199997,
-4.478000e+00,-0.036000,6.525000e+01,-72.800003,
-4.476000e+00,-0.024000,6.550000e+01,-92.000000,
-4.474000e+00,-0.036000,6.575000e+01,-92.800003,
-4.472000e+00,-0.020000,6.600000e+01,-77.599998,
-4.470000e+00,-0.040000,6.625000e+01,-76.000000,
-4.468000e+00,-0.028000,6.650000e+01,-75.199997,
-4.466000e+00,-0.040000,6.675000e+01,-73.599998,
-4.464000e+00,-0.028000,6.700000e+01,-79.199997,
-4.462000e+00,-0.044000,6.725000e+01,-79.199997,
-4.460000e+00,-0.028000,6.750000e+01,-79.199997,
-4.458000e+00,-0.044000,6.775000e+01,-83.199997,
-4.456000e+00,-0.032000,6.800000e+01,-80.800003,
-4.454000e+00,-0.044000,6.825000e+01,-80.800003,
-4.452000e+00,-0.028000,6.850000e+01,-84.000000,
-4.450000e+00,-0.044000,6.875000e+01,-74.400002,
-4.448000e+00,-0.028000,6.900000e+01,-82.400002,
-4.446000e+00,-0.044000,6.925000e+01,-72.000000,
-4.444000e+00,-0.044000,6.950000e+01,-84.000000,
-4.442000e+00,-0.028000,6.975000e+01,-76.000000,
-4.440000e+00,-0.040000,7.000000e+01,-72.800003,
-4.438000e+00,-0.024000,7.025000e+01,-80.000000,
-4.436000e+00,-0.020000,7.050000e+01,-91.199997,
-4.434000e+00,-0.040000,7.075000e+01,-76.800003,
-4.432000e+00,-0.024000,7.100000e+01,-74.400002,
-4.430000e+00,-0.036000,7.125000e+01,-81.599998,
-4.428000e+00,-0.020000,7.150000e+01,-83.199997,
-4.426000e+00,-0.032000,7.175000e+01,-79.199997,
-4.424000e+00,-0.036000,7.200000e+01,-77.599998,
-4.422000e+00,-0.016000,7.225000e+01,-79.199997,
-4.420000e+00,-0.028000,7.250000e+01,-81.599998,
-4.418000e+00,-0.012000,7.275000e+01,-83.199997,
-4.416000e+00,-0.024000,7.300000e+01,-89.599998,
-4.414000e+00,-0.008000,7.325000e+01,-83.199997,
-4.412000e+00,-0.020000,7.350000e+01,-74.400002,
-4.410000e+00,-0.004000,7.375000e+01,-74.400002,
-4.408000e+00,-0.004000,7.400000e+01,-78.400002,
-4.406000e+00,-0.016000,7.425000e+01,-78.400002,
-4.404000e+00,-0.004000,7.450000e+01,-80.800003,
-4.402000e+00,-0.016000,7.475000e+01,-91.199997,
-4.400000e+00,-0.004000,7.500000e+01,-90.400002,
-4.398000e+00,-0.020000,7.525000e+01,-82.400002,
-4.396000e+00,-0.004000,7.550000e+01,-73.599998,
-4.394000e+00,-0.016000,7.575000e+01,-82.400002,
-4.392000e+00,-0.008000,7.600000e+01,-84.800003,
-4.390000e+00,-0.020000,7.625000e+01,-84.000000,
-4.388000e+00,-0.012000,7.650000e+01,-84.000000,
-4.386000e+00,-0.024000,7.675000e+01,-80.000000,
-4.384000e+00,-0.012000,7.700000e+01,-84.800003,
-4.382000e+00,-0.032000,7.725000e+01,-76.000000,
-4.380000e+00,-0.024000,7.750000e+01,-78.400002,
-4.378000e+00,-0.036000,7.775000e+01,-80.800003,
-4.376000e+00,-0.028000,7.800000e+01,-76.000000,
-4.374000e+00,-0.040000,7.825000e+01,-88.000000,
-4.372000e+00,-0.028000,7.850000e+01,-81.599998,
-4.370000e+00,-0.044000,7.875000e+01,-73.599998,
-4.368000e+00,-0.032000,7.900000e+01,-85.599998,
-4.366000e+00,-0.044000,7.925000e+01,-84.000000,
-4.364000e+00,-0.028000,7.950000e+01,-73.599998,
-4.362000e+00,-0.044000,7.975000e+01,-77.599998,
-4.360000e+00,-0.028000,8.000000e+01,-85.599998,
-4.358000e+00,-0.044000,8.025000e+01,-76.800003,
-4.356000e+00,-0.028000,8.050000e+01,-80.000000,
-4.354000e+00,-0.040000,8.075000e+01,-84.000000,
-4.352000e+00,-0.028000,8.100000e+01,-80.000000,
-4.350000e+00,-0.040000,8.125000e+01,-88.800003,
-4.348000e+00,-0.028000,8.150000e+01,-83.199997,
-4.346000e+00,-0.036000,8.175000e+01,-77.599998,
-4.344000e+00,-0.028000,8.200000e+01,-84.000000,
-4.342000e+00,-0.048000,8.225000e+01,-80.000000,
-4.340000e+00,-0.028000,8.250000e+01,-71.199997,
-4.338000e+00,-0.040000,8.275000e+01,-79.199997,
-4.336000e+00,-0.028000,8.300000e+01,-77.599998,
-4.334000e+00,-0.040000,8.325000e+01,-74.400002,
-4.332000e+00,-0.028000,8.350000e+01,-81.599998,
-4.330000e+00,-0.040000,8.375000e+01,-80.800003,
-4.328000e+00,-0.024000,8.400000e+01,-79.199997,
-4.326000e+00,-0.040000,8.425000e+01,-76.000000,
-4.324000e+00,-0.024000,8.450000e+01,-80.000000,
-4.322000e+00,-0.044000,8.475000e+01,-74.400002,
-4.320000e+00,-0.028000,8.500000e+01,-82.400002,
-4.318000e+00,-0.036000,8.525000e+01,-79.199997,
-4.316000e+00,-0.024000,8.550000e+01,-78.400002,
-4.314000e+00,-0.036000,8.575000e+01,-94.400002,
-4.312000e+00,-0.024000,8.600000e+01,-84.000000,
-4.310000e+00,-0.036000,8.625000e+01,-75.199997,
-4.308000e+00,-0.024000,8.650000e+01,-80.000000,
-4.306000e+00,-0.036000,8.675000e+01,-91.199997,
-4.304000e+00,-0.028000,8.700000e+01,-80.000000,
-4.302000e+00,-0.044000,8.725000e+01,-80.800003,
-4.300000e+00,-0.032000,8.750000e+01,-72.000000,
-4.298000e+00,-0.048000,8.775000e+01,-89.599998,
-4.296000e+00,-0.036000,8.800000e+01,-72.000000,
-4.294000e+00,-0.052000,8.825000e+01,-76.000000,
-4.292000e+00,-0.040000,8.850000e+01,-84.800003,
-4.290000e+00,-0.056000,8.875000e+01,-78.400002,
-4.288000e+00,-0.040000,8.900000e+01,-76.000000,
-4.286000e+00,-0.052000,8.925000e+01,-82.400002,
-4.284000e+00,-0.052000,8.950000e+01,-76.800003,
-4.282000e+00,-0.032000,8.975000e+01,-76.000000,
-4.280000e+00,-0.040000,9.000000e+01,-75.199997,
-4.278000e+00,-0.016000,9.025000e+01,-83.199997,
-4.276000e+00,-0.028000,9.050000e+01,-77.599998,
-4.274000e+00,0.008000,9.075000e+01,-76.800003,
-4.272000e+00,0.000000,9.100000e+01,-72.000000,
-4.270000e+00,0.036000,9.125000e+01,-76.000000,
-4.268000e+00,0.032000,9.150000e+01,-80.800003,
-4.266000e+00,0.068000,9.175000e+01,-79.199997,
-4.264000e+00,0.064000,9.200000e+01,-76.800003,
-4.262000e+00,0.092000,9.225000e+01,-96.800003,
-4.260000e+00,0.088000,9.250000e+01,-81.599998,
-4.258000e+00,0.104000,9.275000e+01,-77.599998,
-4.256000e+00,0.104000,9.300000e+01,-84.800003,
-4.254000e+00,0.088000,9.325000e+01,-71.199997,
-4.252000e+00,0.092000,9.350000e+01,-75.199997,
-4.250000e+00,0.068000,9.375000e+01,-79.199997,
-4.248000e+00,0.076000,9.400000e+01,-77.599998,
-4.246000e+00,0.044000,9.425000e+01,-78.400002,
-4.244000e+00,0.056000,9.450000e+01,-74.400002,
-4.242000e+00,0.020000,9.475000e+01,-87.199997,
-4.240000e+00,0.032000,9.500000e+01,-79.199997,
-4.238000e+00,0.004000,9.525000e+01,-89.599998,
-4.236000e+00,0.008000,9.550000e+01,-84.000000,
-4.234000e+00,-0.012000,9.575000e+01,-77.599998,
-4.232000e+00,-0.004000,9.600000e+01,-74.400002,
-4.230000e+00,-0.024000,9.625000e+01,-76.000000,
-4.228000e+00,-0.016000,9.650000e+01,-74.400002,
-4.226000e+00,-0.028000,9.675000e+01,-72.000000,
-4.224000e+00,-0.020000,9.700000e+01,-77.599998,
-4.222000e+00,-0.032000,9.725000e+01,-81.599998,
-4.220000e+00,-0.024000,9.750000e+01,-72.800003,
-4.218000e+00,-0.036000,9.775000e+01,-72.800003,
-4.216000e+00,-0.024000,9.800000e+01,-74.400002,
-4.214000e+00,-0.036000,9.825000e+01,-81.599998,
-4.212000e+00,-0.020000,9.850000e+01,-85.599998,
