ECG-Dataset/Archisman_04.06.2015_Shielding_nonShielding/with shielding/ALL0002.CSV

Format,2.0A,
Memory Length,5000,Memory Length,1000,
Trigger Level,2.96mV,Trigger Level,0.000E+00,
Source,CH1,Source,FFT,
Label, ,Label, ,
Probe Ratio,1.000E+00,Probe Ratio,1.000E+00,
Vertical Units,V,Vertical Units,dB,
Vertical Scale,1.000E-01,Vertical Scale,2.000E+01,
Vertical Position,8.800E-02,Vertical Position,0.000000E+00Div,
Horizontal Units,S,Horizontal Units,Hz,
Horizontal Scale,1.000E+00,Horizontal Scale,125Hz,
Horizontal Position,0.000E+00,Horizontal Position,0.000E+00,
Horizontal Mode,Roll Mode,Horizontal Mode,Roll Mode,
Sampling Period,2.000E-03,Sampling Period,1.250E+00,
Firmware,V1.18,Firmware,V1.18,
Time,04-Jun-15 22:05:00,Time,04-Jun-15 22:05:00,
Mode,Detail,Mode,Detail,
Waveform Data,,Waveform Data,,
-5.000000e+00,0.088000,0.000000e+00,-44.000000,
-4.998000e+00,0.076000,1.250000e+00,-33.599998,
-4.996000e+00,0.088000,2.500000e+00,-47.200001,
-4.994000e+00,0.076000,3.750000e+00,-38.400002,
-4.992000e+00,0.088000,5.000000e+00,-36.000000,
-4.990000e+00,0.076000,6.250000e+00,-42.400002,
-4.988000e+00,0.088000,7.500000e+00,-43.200001,
-4.986000e+00,0.076000,8.750000e+00,-40.799999,
-4.984000e+00,0.088000,1.000000e+01,-45.599998,
-4.982000e+00,0.080000,1.125000e+01,-46.400002,
-4.980000e+00,0.088000,1.250000e+01,-45.599998,
-4.978000e+00,0.080000,1.375000e+01,-44.000000,
-4.976000e+00,0.088000,1.500000e+01,-44.799999,
-4.974000e+00,0.080000,1.625000e+01,-51.200001,
-4.972000e+00,0.088000,1.750000e+01,-51.200001,
-4.970000e+00,0.080000,1.875000e+01,-48.799999,
-4.968000e+00,0.080000,2.000000e+01,-52.000000,
-4.966000e+00,0.092000,2.125000e+01,-53.599998,
-4.964000e+00,0.092000,2.250000e+01,-54.400002,
-4.962000e+00,0.084000,2.375000e+01,-54.400002,
-4.960000e+00,0.092000,2.500000e+01,-55.200001,
-4.958000e+00,0.084000,2.625000e+01,-64.000000,
-4.956000e+00,0.096000,2.750000e+01,-63.200001,
-4.954000e+00,0.084000,2.875000e+01,-60.000000,
-4.952000e+00,0.092000,3.000000e+01,-60.799999,
-4.950000e+00,0.088000,3.125000e+01,-66.400002,
-4.948000e+00,0.096000,3.250000e+01,-66.400002,
-4.946000e+00,0.084000,3.375000e+01,-63.200001,
-4.944000e+00,0.096000,3.500000e+01,-69.599998,
-4.942000e+00,0.084000,3.625000e+01,-65.599998,
-4.940000e+00,0.096000,3.750000e+01,-72.800003,
-4.938000e+00,0.088000,3.875000e+01,-72.000000,
-4.936000e+00,0.096000,4.000000e+01,-72.800003,
-4.934000e+00,0.088000,4.125000e+01,-73.599998,
-4.932000e+00,0.088000,4.250000e+01,-77.599998,
-4.930000e+00,0.100000,4.375000e+01,-76.000000,
-4.928000e+00,0.088000,4.500000e+01,-72.800003,
-4.926000e+00,0.100000,4.625000e+01,-75.199997,
-4.924000e+00,0.096000,4.750000e+01,-74.400002,
-4.922000e+00,0.088000,4.875000e+01,-69.599998,
-4.920000e+00,0.096000,5.000000e+01,-68.800003,
-4.918000e+00,0.088000,5.125000e+01,-84.800003,
-4.916000e+00,0.100000,5.250000e+01,-70.400002,
-4.914000e+00,0.088000,5.375000e+01,-68.000000,
-4.912000e+00,0.100000,5.500000e+01,-72.000000,
-4.910000e+00,0.092000,5.625000e+01,-83.199997,
-4.908000e+00,0.100000,5.750000e+01,-87.199997,
-4.906000e+00,0.092000,5.875000e+01,-73.599998,
-4.904000e+00,0.100000,6.000000e+01,-81.599998,
-4.902000e+00,0.088000,6.125000e+01,-78.400002,
-4.900000e+00,0.088000,6.250000e+01,-78.400002,
-4.898000e+00,0.100000,6.375000e+01,-75.199997,
-4.896000e+00,0.100000,6.500000e+01,-87.199997,
-4.894000e+00,0.088000,6.625000e+01,-75.199997,
-4.892000e+00,0.096000,6.750000e+01,-85.599998,
-4.890000e+00,0.088000,6.875000e+01,-80.000000,
-4.888000e+00,0.096000,7.000000e+01,-78.400002,
-4.886000e+00,0.088000,7.125000e+01,-89.599998,
-4.884000e+00,0.096000,7.250000e+01,-76.800003,
-4.882000e+00,0.088000,7.375000e+01,-77.599998,
-4.880000e+00,0.096000,7.500000e+01,-77.599998,
-4.878000e+00,0.088000,7.625000e+01,-87.199997,
-4.876000e+00,0.096000,7.750000e+01,-76.800003,
-4.874000e+00,0.084000,7.875000e+01,-83.199997,
-4.872000e+00,0.092000,8.000000e+01,-78.400002,
-4.870000e+00,0.084000,8.125000e+01,-74.400002,
-4.868000e+00,0.092000,8.250000e+01,-73.599998,
-4.866000e+00,0.080000,8.375000e+01,-77.599998,
-4.864000e+00,0.088000,8.500000e+01,-80.800003,
-4.862000e+00,0.080000,8.625000e+01,-80.800003,
-4.860000e+00,0.088000,8.750000e+01,-89.599998,
-4.858000e+00,0.080000,8.875000e+01,-74.400002,
-4.856000e+00,0.088000,9.000000e+01,-73.599998,
-4.854000e+00,0.076000,9.125000e+01,-80.000000,
-4.852000e+00,0.084000,9.250000e+01,-77.599998,
-4.850000e+00,0.076000,9.375000e+01,-76.000000,
-4.848000e+00,0.084000,9.500000e+01,-75.199997,
-4.846000e+00,0.076000,9.625000e+01,-89.599998,
-4.844000e+00,0.088000,9.750000e+01,-77.599998,
-4.842000e+00,0.072000,9.875000e+01,-80.800003,
-4.840000e+00,0.080000,1.000000e+02,-84.000000,
-4.838000e+00,0.072000,1.012500e+02,-82.400002,
-4.836000e+00,0.080000,1.025000e+02,-80.000000,
-4.834000e+00,0.072000,1.037500e+02,-87.199997,
-4.832000e+00,0.076000,1.050000e+02,-88.000000,
-4.830000e+00,0.068000,1.062500e+02,-86.400002,
-4.828000e+00,0.076000,1.075000e+02,-84.000000,
-4.826000e+00,0.064000,1.087500e+02,-92.800003,
-4.824000e+00,0.076000,1.100000e+02,-78.400002,
-4.822000e+00,0.064000,1.112500e+02,-73.599998,
-4.820000e+00,0.072000,1.125000e+02,-84.000000,
-4.818000e+00,0.064000,1.137500e+02,-84.800003,
-4.816000e+00,0.072000,1.150000e+02,-77.599998,
-4.814000e+00,0.064000,1.162500e+02,-82.400002,
-4.812000e+00,0.072000,1.175000e+02,-80.000000,
-4.810000e+00,0.060000,1.187500e+02,-78.400002,
-4.808000e+00,0.068000,1.200000e+02,-73.599998,
-4.806000e+00,0.060000,1.212500e+02,-82.400002,
-4.804000e+00,0.068000,1.225000e+02,-80.000000,
-4.802000e+00,0.060000,1.237500e+02,-77.599998,
-4.800000e+00,0.068000,1.250000e+02,-77.599998,
-4.798000e+00,0.056000,1.262500e+02,-77.599998,
-4.796000e+00,0.068000,1.275000e+02,-87.199997,
-4.794000e+00,0.056000,1.287500e+02,-76.800003,
-4.792000e+00,0.064000,1.300000e+02,-89.599998,
-4.790000e+00,0.056000,1.312500e+02,-80.000000,
-4.788000e+00,0.060000,1.325000e+02,-77.599998,
-4.786000e+00,0.052000,1.337500e+02,-80.000000,
-4.784000e+00,0.060000,1.350000e+02,-87.199997,
-4.782000e+00,0.052000,1.362500e+02,-76.000000,
-4.780000e+00,0.060000,1.375000e+02,-83.199997,
-4.778000e+00,0.052000,1.387500e+02,-77.599998,
-4.776000e+00,0.060000,1.400000e+02,-80.800003,
-4.774000e+00,0.048000,1.412500e+02,-83.199997,
-4.772000e+00,0.056000,1.425000e+02,-73.599998,
-4.770000e+00,0.048000,1.437500e+02,-81.599998,
-4.768000e+00,0.056000,1.450000e+02,-74.400002,
-4.766000e+00,0.048000,1.462500e+02,-82.400002,
-4.764000e+00,0.056000,1.475000e+02,-75.199997,
-4.762000e+00,0.044000,1.487500e+02,-75.199997,
-4.760000e+00,0.052000,1.500000e+02,-88.000000,
-4.758000e+00,0.044000,1.512500e+02,-87.199997,
-4.756000e+00,0.052000,1.525000e+02,-87.199997,
-4.754000e+00,0.044000,1.537500e+02,-74.400002,
-4.752000e+00,0.052000,1.550000e+02,-83.199997,
-4.750000e+00,0.040000,1.562500e+02,-79.199997,
-4.748000e+00,0.048000,1.575000e+02,-77.599998,
-4.746000e+00,0.036000,1.587500e+02,-74.400002,
-4.744000e+00,0.048000,1.600000e+02,-78.400002,
-4.742000e+00,0.036000,1.612500e+02,-80.000000,
-4.740000e+00,0.044000,1.625000e+02,-81.599998,
-4.738000e+00,0.036000,1.637500e+02,-84.000000,
-4.736000e+00,0.044000,1.650000e+02,-82.400002,
-4.734000e+00,0.036000,1.662500e+02,-100.800003,
-4.732000e+00,0.044000,1.675000e+02,-77.599998,
-4.730000e+00,0.032000,1.687500e+02,-80.000000,
-4.728000e+00,0.040000,1.700000e+02,-84.800003,
-4.726000e+00,0.032000,1.712500e+02,-84.800003,
-4.724000e+00,0.040000,1.725000e+02,-81.599998,
-4.722000e+00,0.032000,1.737500e+02,-88.000000,
-4.720000e+00,0.036000,1.750000e+02,-81.599998,
-4.718000e+00,0.032000,1.762500e+02,-77.599998,
-4.716000e+00,0.036000,1.775000e+02,-72.000000,
-4.714000e+00,0.028000,1.787500e+02,-72.800003,
-4.712000e+00,0.036000,1.800000e+02,-82.400002,
-4.710000e+00,0.028000,1.812500e+02,-76.000000,
-4.708000e+00,0.036000,1.825000e+02,-85.599998,
-4.706000e+00,0.028000,1.837500e+02,-72.800003,
-4.704000e+00,0.032000,1.850000e+02,-80.000000,
-4.702000e+00,0.024000,1.862500e+02,-72.800003,
-4.700000e+00,0.036000,1.875000e+02,-80.800003,
-4.698000e+00,0.020000,1.887500e+02,-84.800003,
-4.696000e+00,0.032000,1.900000e+02,-80.800003,
-4.694000e+00,0.024000,1.912500e+02,-79.199997,
-4.692000e+00,0.032000,1.925000e+02,-77.599998,
-4.690000e+00,0.020000,1.937500e+02,-80.000000,
-4.688000e+00,0.028000,1.950000e+02,-85.599998,
-4.686000e+00,0.020000,1.962500e+02,-84.800003,
-4.684000e+00,0.028000,1.975000e+02,-79.199997,
-4.682000e+00,0.020000,1.987500e+02,-74.400002,
-4.680000e+00,0.028000,2.000000e+02,-74.400002,
-4.678000e+00,0.016000,2.012500e+02,-84.800003,
-4.676000e+00,0.024000,2.025000e+02,-92.000000,
-4.674000e+00,0.016000,2.037500e+02,-80.000000,
-4.672000e+00,0.024000,2.050000e+02,-79.199997,
-4.670000e+00,0.016000,2.062500e+02,-85.599998,
-4.668000e+00,0.024000,2.075000e+02,-80.000000,
-4.666000e+00,0.012000,2.087500e+02,-83.199997,
-4.664000e+00,0.020000,2.100000e+02,-81.599998,
-4.662000e+00,0.012000,2.112500e+02,-83.199997,
-4.660000e+00,0.020000,2.125000e+02,-82.400002,
-4.658000e+00,0.012000,2.137500e+02,-95.199997,
-4.656000e+00,0.020000,2.150000e+02,-81.599998,
-4.654000e+00,0.008000,2.162500e+02,-80.000000,
-4.652000e+00,0.020000,2.175000e+02,-77.599998,
-4.650000e+00,0.004000,2.187500e+02,-82.400002,
-4.648000e+00,0.016000,2.200000e+02,-84.000000,
-4.646000e+00,0.008000,2.212500e+02,-83.199997,
-4.644000e+00,0.024000,2.225000e+02,-77.599998,
-4.642000e+00,0.004000,2.237500e+02,-83.199997,
-4.640000e+00,0.012000,2.250000e+02,-82.400002,
-4.638000e+00,0.004000,2.262500e+02,-92.800003,
-4.636000e+00,0.012000,2.275000e+02,-86.400002,
-4.634000e+00,0.004000,2.287500e+02,-78.400002,
-4.632000e+00,0.012000,2.300000e+02,-83.199997,
-4.630000e+00,0.004000,2.312500e+02,-79.199997,
-4.628000e+00,0.000000,2.325000e+02,-80.000000,
-4.626000e+00,0.012000,2.337500e+02,-83.199997,
-4.624000e+00,0.012000,2.350000e+02,-81.599998,
-4.622000e+00,0.000000,2.362500e+02,-85.599998,
-4.620000e+00,0.012000,2.375000e+02,-72.800003,
-4.618000e+00,0.004000,2.387500e+02,-76.800003,
-4.616000e+00,0.012000,2.400000e+02,-84.000000,
-4.614000e+00,0.004000,2.412500e+02,-79.199997,
-4.612000e+00,0.008000,2.425000e+02,-78.400002,
-4.610000e+00,0.000000,2.437500e+02,-84.000000,
-4.608000e+00,0.008000,2.450000e+02,-76.800003,
-4.606000e+00,0.000000,2.462500e+02,-89.599998,
-4.604000e+00,0.008000,2.475000e+02,-94.400002,
-4.602000e+00,-0.008000,2.487500e+02,-79.199997,
-4.600000e+00,0.016000,2.500000e+02,-88.000000,
-4.598000e+00,0.000000,2.512500e+02,-79.199997,
-4.596000e+00,0.008000,2.525000e+02,-79.199997,
-4.594000e+00,0.000000,2.537500e+02,-75.199997,
-4.592000e+00,0.008000,2.550000e+02,-81.599998,
-4.590000e+00,0.000000,2.562500e+02,-74.400002,
-4.588000e+00,0.008000,2.575000e+02,-84.000000,
-4.586000e+00,0.000000,2.587500e+02,-83.199997,
-4.584000e+00,0.008000,2.600000e+02,-80.000000,
-4.582000e+00,-0.004000,2.612500e+02,-88.000000,
-4.580000e+00,-0.004000,2.625000e+02,-84.000000,
-4.578000e+00,0.008000,2.637500e+02,-81.599998,
-4.576000e+00,0.004000,2.650000e+02,-80.800003,
-4.574000e+00,-0.004000,2.662500e+02,-76.800003,
-4.572000e+00,0.004000,2.675000e+02,-80.800003,
-4.570000e+00,-0.004000,2.687500e+02,-80.000000,
-4.568000e+00,0.004000,2.700000e+02,-72.800003,
-4.566000e+00,-0.004000,2.712500e+02,-76.000000,
-4.564000e+00,0.000000,2.725000e+02,-75.199997,
-4.562000e+00,-0.008000,2.737500e+02,-77.599998,
-4.560000e+00,0.000000,2.750000e+02,-83.199997,
-4.558000e+00,-0.008000,2.762500e+02,-84.000000,
-4.556000e+00,0.000000,2.775000e+02,-84.000000,
-4.554000e+00,-0.012000,2.787500e+02,-90.400002,
-4.552000e+00,0.000000,2.800000e+02,-77.599998,
-4.550000e+00,-0.012000,2.812500e+02,-77.599998,
-4.548000e+00,-0.004000,2.825000e+02,-76.800003,
-4.546000e+00,-0.012000,2.837500e+02,-89.599998,
-4.544000e+00,-0.004000,2.850000e+02,-84.000000,
-4.542000e+00,-0.012000,2.862500e+02,-78.400002,
-4.540000e+00,-0.004000,2.875000e+02,-81.599998,
-4.538000e+00,-0.012000,2.887500e+02,-84.000000,
-4.536000e+00,-0.008000,2.900000e+02,-80.000000,
-4.534000e+00,-0.016000,2.912500e+02,-80.800003,
-4.532000e+00,-0.008000,2.925000e+02,-84.000000,
-4.530000e+00,-0.016000,2.937500e+02,-83.199997,
-4.528000e+00,-0.008000,2.950000e+02,-80.800003,
-4.526000e+00,-0.016000,2.962500e+02,-72.800003,
-4.524000e+00,-0.008000,2.975000e+02,-77.599998,
-4.522000e+00,-0.020000,2.987500e+02,-78.400002,
-4.520000e+00,-0.012000,3.000000e+02,-80.800003,
-4.518000e+00,-0.020000,3.012500e+02,-96.800003,
-4.516000e+00,-0.012000,3.025000e+02,-77.599998,
-4.514000e+00,-0.020000,3.037500e+02,-81.599998,
-4.512000e+00,-0.012000,3.050000e+02,-84.000000,
-4.510000e+00,-0.020000,3.062500e+02,-76.800003,
-4.508000e+00,-0.016000,3.075000e+02,-77.599998,
-4.506000e+00,-0.024000,3.087500e+02,-83.199997,
-4.504000e+00,-0.012000,3.100000e+02,-78.400002,
-4.502000e+00,-0.024000,3.112500e+02,-76.800003,
-4.500000e+00,-0.016000,3.125000e+02,-83.199997,
-4.498000e+00,-0.028000,3.137500e+02,-76.000000,
-4.496000e+00,-0.016000,3.150000e+02,-85.599998,
-4.494000e+00,-0.028000,3.162500e+02,-80.000000,
-4.492000e+00,-0.020000,3.175000e+02,-78.400002,
-4.490000e+00,-0.028000,3.187500e+02,-84.000000,
-4.488000e+00,-0.020000,3.200000e+02,-95.199997,
-4.486000e+00,-0.028000,3.212500e+02,-80.800003,
-4.484000e+00,-0.020000,3.225000e+02,-82.400002,
-4.482000e+00,-0.032000,3.237500e+02,-84.800003,
-4.480000e+00,-0.020000,3.250000e+02,-95.199997,
-4.478000e+00,-0.028000,3.262500e+02,-82.400002,
-4.476000e+00,-0.024000,3.275000e+02,-79.199997,
-4.474000e+00,-0.028000,3.287500e+02,-80.000000,
-4.472000e+00,-0.024000,3.300000e+02,-78.400002,
-4.470000e+00,-0.032000,3.312500e+02,-82.400002,
-4.468000e+00,-0.024000,3.325000e+02,-85.599998,
-4.466000e+00,-0.032000,3.337500e+02,-81.599998,
-4.464000e+00,-0.024000,3.350000e+02,-79.199997,
-4.462000e+00,-0.032000,3.362500e+02,-91.199997,
-4.460000e+00,-0.024000,3.375000e+02,-77.599998,
-4.458000e+00,-0.032000,3.387500e+02,-76.800003,
-4.456000e+00,-0.024000,3.400000e+02,-80.800003,
-4.454000e+00,-0.032000,3.412500e+02,-84.800003,
-4.452000e+00,-0.024000,3.425000e+02,-88.000000,
-4.450000e+00,-0.032000,3.437500e+02,-76.000000,
-4.448000e+00,-0.036000,3.450000e+02,-84.800003,
-4.446000e+00,-0.024000,3.462500e+02,-76.800003,
-4.444000e+00,-0.024000,3.475000e+02,-78.400002,
-4.442000e+00,-0.040000,3.487500e+02,-95.199997,
-4.440000e+00,-0.028000,3.500000e+02,-79.199997,
-4.438000e+00,-0.036000,3.512500e+02,-92.000000,
-4.436000e+00,-0.028000,3.525000e+02,-79.199997,
-4.434000e+00,-0.032000,3.537500e+02,-102.400002,
-4.432000e+00,-0.028000,3.550000e+02,-82.400002,
-4.430000e+00,-0.036000,3.562500e+02,-76.000000,
-4.428000e+00,-0.028000,3.575000e+02,-94.400002,
-4.426000e+00,-0.040000,3.587500e+02,-78.400002,
-4.424000e+00,-0.028000,3.600000e+02,-74.400002,
-4.422000e+00,-0.036000,3.612500e+02,-76.800003,
-4.420000e+00,-0.028000,3.625000e+02,-79.199997,
-4.418000e+00,-0.036000,3.637500e+02,-92.000000,
-4.416000e+00,-0.024000,3.650000e+02,-92.000000,
-4.414000e+00,-0.036000,3.662500e+02,-79.199997,
-4.412000e+00,-0.024000,3.675000e+02,-82.400002,
-4.410000e+00,-0.036000,3.687500e+02,-87.199997,
-4.408000e+00,-0.028000,3.700000e+02,-96.800003,
-4.406000e+00,-0.036000,3.712500e+02,-78.400002,
-4.404000e+00,-0.028000,3.725000e+02,-77.599998,
-4.402000e+00,-0.036000,3.737500e+02,-77.599998,
-4.400000e+00,-0.028000,3.750000e+02,-95.199997,
-4.398000e+00,-0.044000,3.762500e+02,-79.199997,
-4.396000e+00,-0.028000,3.775000e+02,-78.400002,
-4.394000e+00,-0.040000,3.787500e+02,-84.000000,
-4.392000e+00,-0.028000,3.800000e+02,-80.800003,
-4.390000e+00,-0.036000,3.812500e+02,-81.599998,
-4.388000e+00,-0.028000,3.825000e+02,-91.199997,
-4.386000e+00,-0.036000,3.837500e+02,-84.800003,
-4.384000e+00,-0.028000,3.850000e+02,-76.800003,
-4.382000e+00,-0.036000,3.862500e+02,-80.800003,
-4.380000e+00,-0.028000,3.875000e+02,-100.800003,
-4.378000e+00,-0.040000,3.887500e+02,-84.000000,
-4.376000e+00,-0.028000,3.900000e+02,-92.800003,
-4.374000e+00,-0.036000,3.912500e+02,-78.400002,
-4.372000e+00,-0.028000,3.925000e+02,-89.599998,
-4.370000e+00,-0.040000,3.937500e+02,-81.599998,
-4.368000e+00,-0.028000,3.950000e+02,-78.400002,
-4.366000e+00,-0.040000,3.962500e+02,-78.400002,
-4.364000e+00,-0.028000,3.975000e+02,-83.199997,
-4.362000e+00,-0.036000,3.987500e+02,-78.400002,
-4.360000e+00,-0.028000,4.000000e+02,-78.400002,
-4.358000e+00,-0.036000,4.012500e+02,-84.000000,
-4.356000e+00,-0.028000,4.025000e+02,-83.199997,
-4.354000e+00,-0.036000,4.037500e+02,-75.199997,
-4.352000e+00,-0.028000,4.050000e+02,-89.599998,
-4.350000e+00,-0.040000,4.062500e+02,-102.400002,
-4.348000e+00,-0.028000,4.075000e+02,-84.000000,
-4.346000e+00,-0.036000,4.087500e+02,-80.000000,
-4.344000e+00,-0.028000,4.100000e+02,-86.400002,
-4.342000e+00,-0.036000,4.112500e+02,-80.800003,
-4.340000e+00,-0.028000,4.125000e+02,-71.199997,
-4.338000e+00,-0.036000,4.137500e+02,-82.400002,
-4.336000e+00,-0.024000,4.150000e+02,-76.800003,
-4.334000e+00,-0.036000,4.162500e+02,-85.599998,
-4.332000e+00,-0.028000,4.175000e+02,-75.199997,
-4.330000e+00,-0.036000,4.187500e+02,-80.800003,
-4.328000e+00,-0.024000,4.200000e+02,-84.000000,
-4.326000e+00,-0.036000,4.212500e+02,-82.400002,
-4.324000e+00,-0.024000,4.225000e+02,-81.599998,
-4.322000e+00,-0.032000,4.237500e+02,-76.000000,
-4.320000e+00,-0.024000,4.250000e+02,-76.800003,
-4.318000e+00,-0.036000,4.262500e+02,-81.599998,
-4.316000e+00,-0.024000,4.275000e+02,-83.199997,
-4.314000e+00,-0.032000,4.287500e+02,-76.800003,
-4.312000e+00,-0.020000,4.300000e+02,-80.000000,
-4.310000e+00,-0.032000,4.312500e+02,-87.199997,
-4.308000e+00,-0.024000,4.325000e+02,-80.000000,
-4.306000e+00,-0.032000,4.337500e+02,-76.000000,
-4.304000e+00,-0.024000,4.350000e+02,-78.400002,
-4.302000e+00,-0.028000,4.362500e+02,-76.800003,
-4.300000e+00,-0.032000,4.375000e+02,-85.599998,
-4.298000e+00,-0.020000,4.387500e+02,-83.199997,
-4.296000e+00,-0.020000,4.400000e+02,-80.000000,
-4.294000e+00,-0.032000,4.412500e+02,-76.800003,
-4.292000e+00,-0.020000,4.425000e+02,-78.400002,
-4.290000e+00,-0.028000,4.437500e+02,-80.000000,
-4.288000e+00,-0.020000,4.450000e+02,-98.400002,
-4.286000e+00,-0.028000,4.462500e+02,-84.000000,
-4.284000e+00,-0.032000,4.475000e+02,-78.400002,
-4.282000e+00,-0.020000,4.487500e+02,-76.800003,
-4.280000e+00,-0.020000,4.500000e+02,-92.800003,
-4.278000e+00,-0.028000,4.512500e+02,-72.000000,
-4.276000e+00,-0.020000,4.525000e+02,-80.000000,
-4.274000e+00,-0.028000,4.537500e+02,-80.000000,
-4.272000e+00,-0.016000,4.550000e+02,-72.800003,
-4.270000e+00,-0.028000,4.562500e+02,-80.800003,
-4.268000e+00,-0.016000,4.575000e+02,-81.599998,
-4.266000e+00,-0.032000,4.587500e+02,-81.599998,
-4.264000e+00,-0.020000,4.600000e+02,-76.000000,
-4.262000e+00,-0.028000,4.612500e+02,-75.199997,
-4.260000e+00,-0.020000,4.625000e+02,-81.599998,
-4.258000e+00,-0.028000,4.637500e+02,-78.400002,
-4.256000e+00,-0.016000,4.650000e+02,-77.599998,
-4.254000e+00,-0.024000,4.662500e+02,-80.000000,
-4.252000e+00,-0.016000,4.675000e+02,-87.199997,
-4.250000e+00,-0.028000,4.687500e+02,-80.800003,
-4.248000e+00,-0.016000,4.700000e+02,-80.800003,
-4.246000e+00,-0.024000,4.712500e+02,-74.400002,
-4.244000e+00,-0.016000,4.725000e+02,-80.000000,
-4.242000e+00,-0.028000,4.737500e+02,-76.800003,
-4.240000e+00,-0.016000,4.750000e+02,-96.800003,
-4.238000e+00,-0.024000,4.762500e+02,-79.199997,
-4.236000e+00,-0.016000,4.775000e+02,-83.199997,
-4.234000e+00,-0.024000,4.787500e+02,-76.800003,
-4.232000e+00,-0.016000,4.800000e+02,-76.000000,
-4.230000e+00,-0.024000,4.812500e+02,-95.199997,
-4.228000e+00,-0.016000,4.825000e+02,-77.599998,
-4.226000e+00,-0.024000,4.837500e+02,-79.199997,
-4.224000e+00,-0.016000,4.850000e+02,-80.800003,
-4.222000e+00,-0.024000,4.862500e+02,-83.199997,
-4.220000e+00,-0.016000,4.875000e+02,-80.000000,
-4.218000e+00,-0.020000,4.887500e+02,-92.800003,
-4.216000e+00,-0.016000,4.900000e+02,-80.800003,
-4.214000e+00,-0.024000,4.912500e+02,-77.599998,
-4.212000e+00,-0.012000,4.925000e+02,-74.400002,
-4.210000e+00,-0.024000,4.937500e+02,-88.800003,
-4.208000e+00,-0.016000,4.950000e+02,-88.000000,
